<?xml version="1.0" encoding="utf-8"?>
<!-- Generator: Adobe Illustrator 19.1.1, SVG Export Plug-In . SVG Version: 6.00 Build 0)  -->
<svg version="1.1" id="Calque_1" xmlns="http://www.w3.org/2000/svg" xmlns:xlink="http://www.w3.org/1999/xlink" x="0px" y="0px"
	 viewBox="-457 218 365 365" style="enable-background:new -457 218 365 365;" xml:space="preserve">
<style type="text/css">
	.st0{fill:#5A696B;}
	.st1{fill:#FFFFFF;}
</style>
<g>
	<circle class="st0" cx="-274.5" cy="400.5" r="182.5"/>
	<g>
		<g>
			<g>
				<path class="st1" d="M-291.8,358.3c10.1,0,16.1,7,16.1,17.5c0,0.6,0,1.2-0.1,1.7H-301c0.1,6,4.4,9.8,10.4,9.8
					c5.1,0,7.9-2.8,9.2-4.7l4.6,3.5c-1.6,2.8-6,7.3-14,7.3c-10.4,0-17.3-7.3-17.3-17.4C-308,365.6-300.9,358.3-291.8,358.3z
					 M-282.8,372.7c-0.3-5.5-4.1-8.6-8.9-8.6s-8.5,3.3-9,8.6H-282.8z"/>
				<path class="st1" d="M-242.8,372.4v20.1h-6.9v-20.7c0-4.6-2.9-7.3-6.7-7.3c-4.4,0-7.3,3.3-7.3,7.8v20.2h-7v-33.4h6.8v4.4
					c1.5-2.6,4.9-5.2,9.4-5.2C-245.8,358.3-242.8,365.1-242.8,372.4z"/>
				<path class="st1" d="M-373.8,446.4h-8.3v-3.5c-0.9,1.1-4.2,4.3-9.9,4.3c-9.6,0-16.4-7.2-16.4-17.5c0-10.4,6.3-17.6,15.9-17.6
					c5.8,0,9.1,3.2,9.9,4.4v-16.3h8.8V446.4z M-391,419.9c-5.1,0-8.6,4-8.6,9.9c0,6,3.6,9.7,8.6,9.7c5.4,0,8.6-4.4,8.6-9.7
					C-382.4,423.5-386.1,419.9-391,419.9z"/>
				<path class="st1" d="M-353,412.1c10.4,0,16.3,6.9,16.3,17.9c0,0.6,0,1.3-0.1,1.9h-23.5c0.2,4.5,3.8,7.7,8.7,7.7
					c4.5,0,7.2-2.7,8.1-4.1l5.8,4.4c-1.3,2.4-5.8,7.4-14.1,7.4c-10.8,0-17.6-7.4-17.6-17.5C-369.4,419.6-362.5,412.1-353,412.1z
					 M-345.7,426.1c-0.2-4.1-3.1-6.8-7.2-6.8c-4.2,0-6.8,2.9-7.2,6.8H-345.7z"/>
				<path class="st1" d="M-284.6,446.4h-8.8v-20c0-4-2-6.3-5.2-6.3s-5.4,2.4-5.4,6.4v20h-9V426c0-3.8-1.9-6-5.2-6
					c-3.1,0-5.4,2.4-5.4,6.3v20h-8.8v-33.5h8.6v3.9c1.2-2.3,4.2-4.7,8.7-4.7c4.3,0,7.4,1.9,9.2,5c2-3.1,5.4-5,9.9-5
					c7.6,0,11.4,5.1,11.4,12.2V446.4z"/>
				<path class="st1" d="M-267.5,424.9c3.4,0,6,1,7.2,1.9v-2.2c0-2.9-2.2-4.9-6.1-4.9c-3.3,0-6.4,1.1-8.9,2.4l-3.3-6
					c3-2,8.1-4,13.2-4c10.8,0,14,5.6,14,13.1v21.2h-7.8l-0.6-2.2c-1.7,1.9-4.3,3-8.1,3c-6.8,0-12.5-4.2-12.5-11.2
					C-280.5,429.4-275.4,424.9-267.5,424.9z M-265.9,440.4c3.3,0,5.8-1.8,5.8-4.6c0-2.9-2.4-4.7-5.8-4.7s-5.8,1.9-5.8,4.7
					S-269.2,440.4-265.9,440.4z"/>
				<path class="st1" d="M-216.4,427v19.3h-8.8V426c0-3.7-2.6-6-5.6-6c-3.6,0-6,2.7-6,6.3v20.1h-8.8v-33.5h8.6v3.9
					c1.4-2.3,4.6-4.7,9-4.7C-218.5,412.1-216.4,419.9-216.4,427z"/>
				<path class="st1" d="M-177.6,446.4h-8.3v-3.5c-0.9,1.1-4.2,4.3-9.9,4.3c-9.6,0-16.4-7.2-16.4-17.5c0-10.4,6.3-17.6,15.9-17.6
					c5.8,0,9.1,3.2,9.9,4.4v-16.3h8.8V446.4z M-194.8,419.9c-5.1,0-8.6,4-8.6,9.9c0,6,3.6,9.7,8.6,9.7c5.4,0,8.6-4.4,8.6-9.7
					C-186.2,423.5-189.9,419.9-194.8,419.9z"/>
				<path class="st1" d="M-156.8,412.1c10.4,0,16.3,6.9,16.3,17.9c0,0.6,0,1.3-0.1,1.9h-23.6c0.2,4.5,3.8,7.7,8.7,7.7
					c4.5,0,7.2-2.7,8.1-4.1l5.8,4.4c-1.3,2.4-5.8,7.4-14.1,7.4c-10.8,0-17.6-7.4-17.6-17.5C-173.1,419.6-166.3,412.1-156.8,412.1z
					 M-149.5,426.1c-0.2-4.1-3.1-6.8-7.2-6.8c-4.2,0-6.8,2.9-7.2,6.8H-149.5z"/>
				<path class="st1" d="M-341.4,500.2h-6.6v-4.4c-0.9,1.2-4.3,5.2-10.8,5.2c-9.5,0-16.3-7.2-16.3-17.5c0-10.3,6.3-17.6,15.9-17.6
					c6.3,0,9.9,3.8,10.8,5.3V454h7V500.2z M-358.1,472.2c-5.8,0-9.9,4.7-9.9,11.5c0,6.8,4.3,11.3,10,11.3c6.1,0,9.9-5.1,9.9-11.3
					C-348.1,476.4-352.5,472.2-358.1,472.2z"/>
				<path class="st1" d="M-320,466c10.1,0,16.1,7,16.1,17.5c0,0.6,0,1.2-0.1,1.7h-25.2c0.1,6,4.4,9.8,10.4,9.8
					c5.1,0,7.9-2.8,9.2-4.7l4.6,3.5c-1.6,2.8-6,7.3-14,7.3c-10.4,0-17.3-7.3-17.3-17.4C-336.2,473.3-329.1,466-320,466z M-311,480.4
					c-0.3-5.5-4.1-8.6-8.9-8.6s-8.5,3.3-9,8.6H-311z"/>
				<path class="st1" d="M-283.5,466.8h6.6v4.4c0.9-1.2,4.3-5.2,10.8-5.2c9.5,0,16.3,7.3,16.3,17.5c0,10.4-6.3,17.6-15.9,17.6
					c-6.3,0-9.9-3.8-10.8-5.2v16.4h-7V466.8L-283.5,466.8z M-266.8,494.9c5.8,0,9.9-4.7,9.9-11.4c0-6.8-4.3-11.3-10-11.3
					c-6.1,0-9.9,5.1-9.9,11.3C-276.8,490.7-272.3,494.9-266.8,494.9z"/>
				<path class="st1" d="M-228.2,473c-7.3,0-9.4,5.6-9.4,12.8v14.4h-7v-33.4h6.8v5.2c1.3-3.3,4.8-6.1,9.5-6.1L-228.2,473L-228.2,473
					z"/>
				<path class="st1" d="M-209.4,466c10.1,0,16.1,7,16.1,17.5c0,0.6,0,1.2-0.1,1.7h-25.2c0.1,6,4.4,9.8,10.4,9.8
					c5.1,0,7.9-2.8,9.2-4.7l4.6,3.5c-1.6,2.8-6,7.3-14,7.3c-10.4,0-17.3-7.3-17.3-17.4C-225.7,473.3-218.6,466-209.4,466z
					 M-209.2,457.6l-3.5,4.9h-6.1l6.1-8.6h7.2l6,8.6h-6.1L-209.2,457.6z M-200.5,480.4c-0.3-5.5-4.1-8.6-8.9-8.6s-8.5,3.3-9,8.6
					H-200.5z"/>
				<path class="st1" d="M-187.8,459.8h6.9v7h6.8v5.8h-6.8v15.6c0,5.2,2,6.3,5.7,6.3c0.6,0,1.3-0.1,1.3-0.1v6c0,0-1.2,0.3-3.4,0.3
					c-8.1,0-10.6-5.4-10.6-13.6v-14.5h-3.7v-5.8h3.7v-7H-187.8z"/>
			</g>
		</g>
	</g>
	<g>
		<path class="st1" d="M-234,288.2v2.3h1.1c1.9,0,3.4,1.5,3.4,3.4V314c0,1.9-1.5,3.4-3.4,3.4h-1.1v2.3c0,3.7-3,6.8-6.8,6.8h-72
			c-3.7,0-6.8-3-6.8-6.8v-31.5c0-3.7,3-6.7,6.8-6.7h72C-237,281.4-234,284.4-234,288.2z M-310.5,290.4v27h67.5v-9h4.5v-9h-4.5v-9
			H-310.5z M-288,312.9h-18v-18h18V312.9z"/>
	</g>
</g>
</svg>
